{
    "name": "Teste Sicredi",
    "lastName": "Teste",
    "contactFirstName": "Jonas",
    "phone": "51 9999-9999",
    "addressLine1": "Av Assis Brasil 3970",
    "addressLine2": "Torre D",
    "city": "Porto Alegre",
    "state": "RS",
    "postalCode": "91000-000",
    "country": "Brasil",
    "fromEmployer": 99,
    "creditLimit": 200

}

